<?xml version="1.0" standalone="no"?>
<!DOCTYPE svg PUBLIC "-//W3C//DTD SVG 20010904//EN"
 "http://www.w3.org/TR/2001/REC-SVG-20010904/DTD/svg10.dtd">
<svg version="1.0" xmlns="http://www.w3.org/2000/svg"
 width="300.000000pt" height="300.000000pt" viewBox="0 0 300.000000 300.000000"
 preserveAspectRatio="xMidYMid meet">
<metadata>
Created by potrace 1.11, written by Peter Selinger 2001-2013
</metadata>
<g transform="translate(0.000000,300.000000) scale(0.100000,-0.100000)"
fill="#000000" stroke="none">
<path d="M1548 2975 c-2 -2 -50 -5 -108 -9 -58 -3 -114 -7 -125 -10 -11 -2
-42 -7 -70 -10 -51 -7 -105 -15 -140 -23 -11 -2 -31 -6 -45 -9 -102 -20 -327
-90 -410 -126 -318 -140 -518 -318 -567 -505 -57 -219 78 -421 378 -562 68
-32 195 -78 266 -97 8 -2 9 -12 4 -31 -45 -162 121 -323 409 -397 l95 -24 0
-58 c1 -90 37 -144 139 -209 l57 -36 -21 -26 c-24 -31 -27 -91 -6 -132 58
-110 313 -162 473 -96 95 40 143 96 143 167 l0 34 77 19 c43 10 85 21 93 25 8
4 49 23 90 42 85 40 172 113 200 169 30 57 28 127 -3 182 l-25 46 71 35 c343
166 447 401 253 572 l-52 46 61 64 c128 131 177 285 136 430 -25 93 -129 214
-247 290 -112 72 -356 167 -479 187 -16 3 -57 10 -90 15 -92 17 -133 22 -209
28 -71 6 -344 12 -348 9z"/>
<path d="M1576 337 c-57 -14 -113 -74 -121 -130 -16 -102 64 -187 175 -187 52
0 98 20 131 56 116 127 -10 305 -185 261z"/>
</g>
</svg>
